{
    "accessors" : [
        {
            "bufferView" : 0, 
            "componentType" : 5123, 
            "count" : 825, 
            "max" : [
                664
            ], 
            "min" : [
                0
            ], 
            "type" : "SCALAR"
        }, 
        {
            "bufferView" : 1, 
            "componentType" : 5126, 
            "count" : 665, 
            "max" : [
                0.5186290144920349, 
                1.3669489622116089, 
                0.442142128944397
            ], 
            "min" : [
                -0.5322256088256836, 
                -0.08268876373767853, 
                -0.5429080724716187
            ], 
            "type" : "VEC3"
        }, 
        {
            "bufferView" : 2, 
            "componentType" : 5126, 
            "count" : 665, 
            "max" : [
                0.9747562408447266, 
                1.0, 
                0.9982106685638428
            ], 
            "min" : [
                -0.9747896790504456, 
                -0.9999999403953552, 
                -0.9076868891716003
            ], 
            "type" : "VEC3"
        }, 
        {
            "bufferView" : 3, 
            "componentType" : 5126, 
            "count" : 665, 
            "max" : [
                0.9999999403953552, 
                1.0
            ], 
            "min" : [
                0.0, 
                0.0
            ], 
            "type" : "VEC2"
        }
    ], 
    "asset" : {
        "generator" : "Khronos Blender glTF 2.0 exporter", 
        "version" : "2.0"
    }, 
    "bufferViews" : [
        {
            "buffer" : 0, 
            "byteLength" : 1650, 
            "byteOffset" : 0, 
            "target" : 34963
        }, 
        {
            "buffer" : 0, 
            "byteLength" : 7980, 
            "byteOffset" : 1652, 
            "target" : 34962
        }, 
        {
            "buffer" : 0, 
            "byteLength" : 7980, 
            "byteOffset" : 9632, 
            "target" : 34962
        }, 
        {
            "buffer" : 0, 
            "byteLength" : 5320, 
            "byteOffset" : 17612, 
            "target" : 34962
        }
    ], 
    "buffers" : [
        {
            "byteLength" : 22932, 
            "uri" : "cactus_phase3.bin"
        }
    ], 
    "meshes" : [
        {
            "name" : "Icosphere", 
            "primitives" : [
                {
                    "attributes" : {
                        "NORMAL" : 2, 
                        "POSITION" : 1, 
                        "TEXCOORD_0" : 3
                    }, 
                    "indices" : 0
                }
            ]
        }
    ], 
    "nodes" : [
        {
            "mesh" : 0, 
            "name" : "CactusPhase3", 
            "scale" : [
                2.4589149951934814, 
                2.4589149951934814, 
                2.4589149951934814
            ]
        }
    ], 
    "scene" : 0, 
    "scenes" : [
        {
            "name" : "Scene", 
            "nodes" : [
                0
            ]
        }
    ]
}
