[gd_scene load_steps=9 format=2]

[ext_resource path="res://scripts/Garden.gd" type="Script" id=1]
[ext_resource path="res://assets/models/world/platform/Platform.tscn" type="PackedScene" id=2]
[ext_resource path="res://assets/models/world/fountain/Fountain.tscn" type="PackedScene" id=3]
[ext_resource path="res://assets/models/world/fountain/water/Water.tscn" type="PackedScene" id=4]

[sub_resource type="ConcavePolygonShape" id=1]
data = PoolVector3Array( -1, 1, 1, 1, 1, 1, -1, -1, 1, 1, 1, 1, 1, -1, 1, -1, -1, 1, 1, 1, -1, -1, 1, -1, 1, -1, -1, -1, 1, -1, -1, -1, -1, 1, -1, -1, 1, 1, 1, 1, 1, -1, 1, -1, 1, 1, 1, -1, 1, -1, -1, 1, -1, 1, -1, 1, -1, -1, 1, 1, -1, -1, -1, -1, 1, 1, -1, -1, 1, -1, -1, -1, 1, 1, 1, -1, 1, 1, 1, 1, -1, -1, 1, 1, -1, 1, -1, 1, 1, -1, -1, -1, 1, 1, -1, 1, -1, -1, -1, 1, -1, 1, 1, -1, -1, -1, -1, -1 )

[sub_resource type="ConcavePolygonShape" id=2]
data = PoolVector3Array( 0, 0.05, 1, 0.1951, 0.05, 0.9805, 0, 0, 1, 0.1951, 0.05, 0.9805, 0.1951, 0, 0.9805, 0, 0, 1, 0.1951, 0.05, 0.9805, 0.3826, 0.05, 0.9238, 0.1951, 0, 0.9805, 0.3826, 0.05, 0.9238, 0.3826, 0, 0.9238, 0.1951, 0, 0.9805, 0.3826, 0.05, 0.9238, 0.5552, 0.05, 0.8311, 0.3826, 0, 0.9238, 0.5552, 0.05, 0.8311, 0.5552, 0, 0.8311, 0.3826, 0, 0.9238, 0.5552, 0.05, 0.8311, 0.707, 0.05, 0.707, 0.5552, 0, 0.8311, 0.707, 0.05, 0.707, 0.707, 0, 0.707, 0.5552, 0, 0.8311, 0.707, 0.05, 0.707, 0.8311, 0.05, 0.5552, 0.707, 0, 0.707, 0.8311, 0.05, 0.5552, 0.8311, 0, 0.5552, 0.707, 0, 0.707, 0.8311, 0.05, 0.5552, 0.9238, 0.05, 0.3826, 0.8311, 0, 0.5552, 0.9238, 0.05, 0.3826, 0.9238, 0, 0.3826, 0.8311, 0, 0.5552, 0.9238, 0.05, 0.3826, 0.9805, 0.05, 0.1951, 0.9238, 0, 0.3826, 0.9805, 0.05, 0.1951, 0.9805, 0, 0.1951, 0.9238, 0, 0.3826, 0.9805, 0.05, 0.1951, 1, 0.05, 0, 0.9805, 0, 0.1951, 1, 0.05, 0, 1, 0, 0, 0.9805, 0, 0.1951, 1, 0.05, 0, 0.9805, 0.05, -0.1951, 1, 0, 0, 0.9805, 0.05, -0.1951, 0.9805, 0, -0.1951, 1, 0, 0, 0.9805, 0.05, -0.1951, 0.9238, 0.05, -0.3826, 0.9805, 0, -0.1951, 0.9238, 0.05, -0.3826, 0.9238, 0, -0.3826, 0.9805, 0, -0.1951, 0.9238, 0.05, -0.3826, 0.8311, 0.05, -0.5552, 0.9238, 0, -0.3826, 0.8311, 0.05, -0.5552, 0.8311, 0, -0.5552, 0.9238, 0, -0.3826, 0.8311, 0.05, -0.5552, 0.707, 0.05, -0.707, 0.8311, 0, -0.5552, 0.707, 0.05, -0.707, 0.707, 0, -0.707, 0.8311, 0, -0.5552, 0.707, 0.05, -0.707, 0.5552, 0.05, -0.8311, 0.707, 0, -0.707, 0.5552, 0.05, -0.8311, 0.5552, 0, -0.8311, 0.707, 0, -0.707, 0.5552, 0.05, -0.8311, 0.3826, 0.05, -0.9238, 0.5552, 0, -0.8311, 0.3826, 0.05, -0.9238, 0.3826, 0, -0.9238, 0.5552, 0, -0.8311, 0.3826, 0.05, -0.9238, 0.1951, 0.05, -0.9805, 0.3826, 0, -0.9238, 0.1951, 0.05, -0.9805, 0.1951, 0, -0.9805, 0.3826, 0, -0.9238, 0.1951, 0.05, -0.9805, 0, 0.05, -1, 0.1951, 0, -0.9805, 0, 0.05, -1, 0, 0, -1, 0.1951, 0, -0.9805, 0, 0.05, -1, -0.1951, 0.05, -0.9805, 0, 0, -1, -0.1951, 0.05, -0.9805, -0.1951, 0, -0.9805, 0, 0, -1, -0.1951, 0.05, -0.9805, -0.3826, 0.05, -0.9238, -0.1951, 0, -0.9805, -0.3826, 0.05, -0.9238, -0.3826, 0, -0.9238, -0.1951, 0, -0.9805, -0.3826, 0.05, -0.9238, -0.5552, 0.05, -0.8311, -0.3826, 0, -0.9238, -0.5552, 0.05, -0.8311, -0.5552, 0, -0.8311, -0.3826, 0, -0.9238, -0.5552, 0.05, -0.8311, -0.707, 0.05, -0.707, -0.5552, 0, -0.8311, -0.707, 0.05, -0.707, -0.707, 0, -0.707, -0.5552, 0, -0.8311, -0.707, 0.05, -0.707, -0.8311, 0.05, -0.5552, -0.707, 0, -0.707, -0.8311, 0.05, -0.5552, -0.8311, 0, -0.5552, -0.707, 0, -0.707, -0.8311, 0.05, -0.5552, -0.9238, 0.05, -0.3826, -0.8311, 0, -0.5552, -0.9238, 0.05, -0.3826, -0.9238, 0, -0.3826, -0.8311, 0, -0.5552, -0.9238, 0.05, -0.3826, -0.9805, 0.05, -0.1951, -0.9238, 0, -0.3826, -0.9805, 0.05, -0.1951, -0.9805, 0, -0.1951, -0.9238, 0, -0.3826, -0.9805, 0.05, -0.1951, -1, 0.05, 0, -0.9805, 0, -0.1951, -1, 0.05, 0, -1, 0, 0, -0.9805, 0, -0.1951, -1, 0.05, 0, -0.9805, 0.05, 0.1951, -1, 0, 0, -0.9805, 0.05, 0.1951, -0.9805, 0, 0.1951, -1, 0, 0, -0.9805, 0.05, 0.1951, -0.9238, 0.05, 0.3826, -0.9805, 0, 0.1951, -0.9238, 0.05, 0.3826, -0.9238, 0, 0.3826, -0.9805, 0, 0.1951, -0.9238, 0.05, 0.3826, -0.8311, 0.05, 0.5552, -0.9238, 0, 0.3826, -0.8311, 0.05, 0.5552, -0.8311, 0, 0.5552, -0.9238, 0, 0.3826, -0.8311, 0.05, 0.5552, -0.707, 0.05, 0.707, -0.8311, 0, 0.5552, -0.707, 0.05, 0.707, -0.707, 0, 0.707, -0.8311, 0, 0.5552, -0.707, 0.05, 0.707, -0.5552, 0.05, 0.8311, -0.707, 0, 0.707, -0.5552, 0.05, 0.8311, -0.5552, 0, 0.8311, -0.707, 0, 0.707, -0.5552, 0.05, 0.8311, -0.3826, 0.05, 0.9238, -0.5552, 0, 0.8311, -0.3826, 0.05, 0.9238, -0.3826, 0, 0.9238, -0.5552, 0, 0.8311, -0.3826, 0.05, 0.9238, -0.1951, 0.05, 0.9805, -0.3826, 0, 0.9238, -0.1951, 0.05, 0.9805, -0.1951, 0, 0.9805, -0.3826, 0, 0.9238, -0.1951, 0.05, 0.9805, 0, 0.05, 1, -0.1951, 0, 0.9805, 0, 0.05, 1, 0, 0, 1, -0.1951, 0, 0.9805, 0, 0, 1, 0.1951, 0, 0.9805, 0, -0.05, 1, 0.1951, 0, 0.9805, 0.1951, -0.05, 0.9805, 0, -0.05, 1, 0.1951, 0, 0.9805, 0.3826, 0, 0.9238, 0.1951, -0.05, 0.9805, 0.3826, 0, 0.9238, 0.3826, -0.05, 0.9238, 0.1951, -0.05, 0.9805, 0.3826, 0, 0.9238, 0.5552, 0, 0.8311, 0.3826, -0.05, 0.9238, 0.5552, 0, 0.8311, 0.5552, -0.05, 0.8311, 0.3826, -0.05, 0.9238, 0.5552, 0, 0.8311, 0.707, 0, 0.707, 0.5552, -0.05, 0.8311, 0.707, 0, 0.707, 0.707, -0.05, 0.707, 0.5552, -0.05, 0.8311, 0.707, 0, 0.707, 0.8311, 0, 0.5552, 0.707, -0.05, 0.707, 0.8311, 0, 0.5552, 0.8311, -0.05, 0.5552, 0.707, -0.05, 0.707, 0.8311, 0, 0.5552, 0.9238, 0, 0.3826, 0.8311, -0.05, 0.5552, 0.9238, 0, 0.3826, 0.9238, -0.05, 0.3826, 0.8311, -0.05, 0.5552, 0.9238, 0, 0.3826, 0.9805, 0, 0.1951, 0.9238, -0.05, 0.3826, 0.9805, 0, 0.1951, 0.9805, -0.05, 0.1951, 0.9238, -0.05, 0.3826, 0.9805, 0, 0.1951, 1, 0, 0, 0.9805, -0.05, 0.1951, 1, 0, 0, 1, -0.05, 0, 0.9805, -0.05, 0.1951, 1, 0, 0, 0.9805, 0, -0.1951, 1, -0.05, 0, 0.9805, 0, -0.1951, 0.9805, -0.05, -0.1951, 1, -0.05, 0, 0.9805, 0, -0.1951, 0.9238, 0, -0.3826, 0.9805, -0.05, -0.1951, 0.9238, 0, -0.3826, 0.9238, -0.05, -0.3826, 0.9805, -0.05, -0.1951, 0.9238, 0, -0.3826, 0.8311, 0, -0.5552, 0.9238, -0.05, -0.3826, 0.8311, 0, -0.5552, 0.8311, -0.05, -0.5552, 0.9238, -0.05, -0.3826, 0.8311, 0, -0.5552, 0.707, 0, -0.707, 0.8311, -0.05, -0.5552, 0.707, 0, -0.707, 0.707, -0.05, -0.707, 0.8311, -0.05, -0.5552, 0.707, 0, -0.707, 0.5552, 0, -0.8311, 0.707, -0.05, -0.707, 0.5552, 0, -0.8311, 0.5552, -0.05, -0.8311, 0.707, -0.05, -0.707, 0.5552, 0, -0.8311, 0.3826, 0, -0.9238, 0.5552, -0.05, -0.8311, 0.3826, 0, -0.9238, 0.3826, -0.05, -0.9238, 0.5552, -0.05, -0.8311, 0.3826, 0, -0.9238, 0.1951, 0, -0.9805, 0.3826, -0.05, -0.9238, 0.1951, 0, -0.9805, 0.1951, -0.05, -0.9805, 0.3826, -0.05, -0.9238, 0.1951, 0, -0.9805, 0, 0, -1, 0.1951, -0.05, -0.9805, 0, 0, -1, 0, -0.05, -1, 0.1951, -0.05, -0.9805, 0, 0, -1, -0.1951, 0, -0.9805, 0, -0.05, -1, -0.1951, 0, -0.9805, -0.1951, -0.05, -0.9805, 0, -0.05, -1, -0.1951, 0, -0.9805, -0.3826, 0, -0.9238, -0.1951, -0.05, -0.9805, -0.3826, 0, -0.9238, -0.3826, -0.05, -0.9238, -0.1951, -0.05, -0.9805, -0.3826, 0, -0.9238, -0.5552, 0, -0.8311, -0.3826, -0.05, -0.9238, -0.5552, 0, -0.8311, -0.5552, -0.05, -0.8311, -0.3826, -0.05, -0.9238, -0.5552, 0, -0.8311, -0.707, 0, -0.707, -0.5552, -0.05, -0.8311, -0.707, 0, -0.707, -0.707, -0.05, -0.707, -0.5552, -0.05, -0.8311, -0.707, 0, -0.707, -0.8311, 0, -0.5552, -0.707, -0.05, -0.707, -0.8311, 0, -0.5552, -0.8311, -0.05, -0.5552, -0.707, -0.05, -0.707, -0.8311, 0, -0.5552, -0.9238, 0, -0.3826, -0.8311, -0.05, -0.5552, -0.9238, 0, -0.3826, -0.9238, -0.05, -0.3826, -0.8311, -0.05, -0.5552, -0.9238, 0, -0.3826, -0.9805, 0, -0.1951, -0.9238, -0.05, -0.3826, -0.9805, 0, -0.1951, -0.9805, -0.05, -0.1951, -0.9238, -0.05, -0.3826, -0.9805, 0, -0.1951, -1, 0, 0, -0.9805, -0.05, -0.1951, -1, 0, 0, -1, -0.05, 0, -0.9805, -0.05, -0.1951, -1, 0, 0, -0.9805, 0, 0.1951, -1, -0.05, 0, -0.9805, 0, 0.1951, -0.9805, -0.05, 0.1951, -1, -0.05, 0, -0.9805, 0, 0.1951, -0.9238, 0, 0.3826, -0.9805, -0.05, 0.1951, -0.9238, 0, 0.3826, -0.9238, -0.05, 0.3826, -0.9805, -0.05, 0.1951, -0.9238, 0, 0.3826, -0.8311, 0, 0.5552, -0.9238, -0.05, 0.3826, -0.8311, 0, 0.5552, -0.8311, -0.05, 0.5552, -0.9238, -0.05, 0.3826, -0.8311, 0, 0.5552, -0.707, 0, 0.707, -0.8311, -0.05, 0.5552, -0.707, 0, 0.707, -0.707, -0.05, 0.707, -0.8311, -0.05, 0.5552, -0.707, 0, 0.707, -0.5552, 0, 0.8311, -0.707, -0.05, 0.707, -0.5552, 0, 0.8311, -0.5552, -0.05, 0.8311, -0.707, -0.05, 0.707, -0.5552, 0, 0.8311, -0.3826, 0, 0.9238, -0.5552, -0.05, 0.8311, -0.3826, 0, 0.9238, -0.3826, -0.05, 0.9238, -0.5552, -0.05, 0.8311, -0.3826, 0, 0.9238, -0.1951, 0, 0.9805, -0.3826, -0.05, 0.9238, -0.1951, 0, 0.9805, -0.1951, -0.05, 0.9805, -0.3826, -0.05, 0.9238, -0.1951, 0, 0.9805, 0, 0, 1, -0.1951, -0.05, 0.9805, 0, 0, 1, 0, -0.05, 1, -0.1951, -0.05, 0.9805, 0, 0.05, 0, 0.1951, 0.05, 0.9805, 0, 0.05, 1, 0, 0.05, 0, 0.3826, 0.05, 0.9238, 0.1951, 0.05, 0.9805, 0, 0.05, 0, 0.5552, 0.05, 0.8311, 0.3826, 0.05, 0.9238, 0, 0.05, 0, 0.707, 0.05, 0.707, 0.5552, 0.05, 0.8311, 0, 0.05, 0, 0.8311, 0.05, 0.5552, 0.707, 0.05, 0.707, 0, 0.05, 0, 0.9238, 0.05, 0.3826, 0.8311, 0.05, 0.5552, 0, 0.05, 0, 0.9805, 0.05, 0.1951, 0.9238, 0.05, 0.3826, 0, 0.05, 0, 1, 0.05, 0, 0.9805, 0.05, 0.1951, 0, 0.05, 0, 0.9805, 0.05, -0.1951, 1, 0.05, 0, 0, 0.05, 0, 0.9238, 0.05, -0.3826, 0.9805, 0.05, -0.1951, 0, 0.05, 0, 0.8311, 0.05, -0.5552, 0.9238, 0.05, -0.3826, 0, 0.05, 0, 0.707, 0.05, -0.707, 0.8311, 0.05, -0.5552, 0, 0.05, 0, 0.5552, 0.05, -0.8311, 0.707, 0.05, -0.707, 0, 0.05, 0, 0.3826, 0.05, -0.9238, 0.5552, 0.05, -0.8311, 0, 0.05, 0, 0.1951, 0.05, -0.9805, 0.3826, 0.05, -0.9238, 0, 0.05, 0, 0, 0.05, -1, 0.1951, 0.05, -0.9805, 0, 0.05, 0, -0.1951, 0.05, -0.9805, 0, 0.05, -1, 0, 0.05, 0, -0.3826, 0.05, -0.9238, -0.1951, 0.05, -0.9805, 0, 0.05, 0, -0.5552, 0.05, -0.8311, -0.3826, 0.05, -0.9238, 0, 0.05, 0, -0.707, 0.05, -0.707, -0.5552, 0.05, -0.8311, 0, 0.05, 0, -0.8311, 0.05, -0.5552, -0.707, 0.05, -0.707, 0, 0.05, 0, -0.9238, 0.05, -0.3826, -0.8311, 0.05, -0.5552, 0, 0.05, 0, -0.9805, 0.05, -0.1951, -0.9238, 0.05, -0.3826, 0, 0.05, 0, -1, 0.05, 0, -0.9805, 0.05, -0.1951, 0, 0.05, 0, -0.9805, 0.05, 0.1951, -1, 0.05, 0, 0, 0.05, 0, -0.9238, 0.05, 0.3826, -0.9805, 0.05, 0.1951, 0, 0.05, 0, -0.8311, 0.05, 0.5552, -0.9238, 0.05, 0.3826, 0, 0.05, 0, -0.707, 0.05, 0.707, -0.8311, 0.05, 0.5552, 0, 0.05, 0, -0.5552, 0.05, 0.8311, -0.707, 0.05, 0.707, 0, 0.05, 0, -0.3826, 0.05, 0.9238, -0.5552, 0.05, 0.8311, 0, 0.05, 0, -0.1951, 0.05, 0.9805, -0.3826, 0.05, 0.9238, 0, 0.05, 0, 0, 0.05, 1, -0.1951, 0.05, 0.9805, 0, -0.05, 0, 0, -0.05, 1, 0.1951, -0.05, 0.9805, 0, -0.05, 0, 0.1951, -0.05, 0.9805, 0.3826, -0.05, 0.9238, 0, -0.05, 0, 0.3826, -0.05, 0.9238, 0.5552, -0.05, 0.8311, 0, -0.05, 0, 0.5552, -0.05, 0.8311, 0.707, -0.05, 0.707, 0, -0.05, 0, 0.707, -0.05, 0.707, 0.8311, -0.05, 0.5552, 0, -0.05, 0, 0.8311, -0.05, 0.5552, 0.9238, -0.05, 0.3826, 0, -0.05, 0, 0.9238, -0.05, 0.3826, 0.9805, -0.05, 0.1951, 0, -0.05, 0, 0.9805, -0.05, 0.1951, 1, -0.05, 0, 0, -0.05, 0, 1, -0.05, 0, 0.9805, -0.05, -0.1951, 0, -0.05, 0, 0.9805, -0.05, -0.1951, 0.9238, -0.05, -0.3826, 0, -0.05, 0, 0.9238, -0.05, -0.3826, 0.8311, -0.05, -0.5552, 0, -0.05, 0, 0.8311, -0.05, -0.5552, 0.707, -0.05, -0.707, 0, -0.05, 0, 0.707, -0.05, -0.707, 0.5552, -0.05, -0.8311, 0, -0.05, 0, 0.5552, -0.05, -0.8311, 0.3826, -0.05, -0.9238, 0, -0.05, 0, 0.3826, -0.05, -0.9238, 0.1951, -0.05, -0.9805, 0, -0.05, 0, 0.1951, -0.05, -0.9805, 0, -0.05, -1, 0, -0.05, 0, 0, -0.05, -1, -0.1951, -0.05, -0.9805, 0, -0.05, 0, -0.1951, -0.05, -0.9805, -0.3826, -0.05, -0.9238, 0, -0.05, 0, -0.3826, -0.05, -0.9238, -0.5552, -0.05, -0.8311, 0, -0.05, 0, -0.5552, -0.05, -0.8311, -0.707, -0.05, -0.707, 0, -0.05, 0, -0.707, -0.05, -0.707, -0.8311, -0.05, -0.5552, 0, -0.05, 0, -0.8311, -0.05, -0.5552, -0.9238, -0.05, -0.3826, 0, -0.05, 0, -0.9238, -0.05, -0.3826, -0.9805, -0.05, -0.1951, 0, -0.05, 0, -0.9805, -0.05, -0.1951, -1, -0.05, 0, 0, -0.05, 0, -1, -0.05, 0, -0.9805, -0.05, 0.1951, 0, -0.05, 0, -0.9805, -0.05, 0.1951, -0.9238, -0.05, 0.3826, 0, -0.05, 0, -0.9238, -0.05, 0.3826, -0.8311, -0.05, 0.5552, 0, -0.05, 0, -0.8311, -0.05, 0.5552, -0.707, -0.05, 0.707, 0, -0.05, 0, -0.707, -0.05, 0.707, -0.5552, -0.05, 0.8311, 0, -0.05, 0, -0.5552, -0.05, 0.8311, -0.3826, -0.05, 0.9238, 0, -0.05, 0, -0.3826, -0.05, 0.9238, -0.1951, -0.05, 0.9805, 0, -0.05, 0, -0.1951, -0.05, 0.9805, 0, -0.05, 1 )

[sub_resource type="SpatialMaterial" id=3]
albedo_color = Color( 0.905882, 0.839216, 0.513726, 1 )

[sub_resource type="CylinderMesh" id=4]
material = SubResource( 3 )
height = 0.1
radial_segments = 32
rings = 1

[node name="Garden" type="RigidBody"]
gravity_scale = 0.0
script = ExtResource( 1 )

[node name="CollisionShape" type="CollisionShape" parent="."]
shape = SubResource( 1 )

[node name="Platform" parent="." instance=ExtResource( 2 )]

[node name="Fountain" parent="." instance=ExtResource( 3 )]
editor/display_folded = true
transform = Transform( 0.3, 0, 0, 0, 0.3, 0, 0, 0, 0.3, 0.0522351, 1.08342, 0.0626087 )

[node name="Water" parent="Fountain" instance=ExtResource( 4 )]
transform = Transform( -0.735758, 0, 0.677243, 0, 1, 0, -0.677243, 0, -0.735758, -0.161544, -1.1971, -0.184915 )

[node name="OmniLight" type="OmniLight" parent="Fountain"]
transform = Transform( 1, 0, 0, 0, 1, 0, 0, 0, 1, -0.143237, 0.850725, -0.21396 )
light_energy = 0.0

[node name="Spots" type="Spatial" parent="."]
transform = Transform( 1, 0, 0, 0, 1, 0, 0, 0, 1, 0, 1.59225, 0 )

[node name="First" type="Area" parent="Spots"]
transform = Transform( 1, 0, 0, 0, 1, 0, 0, 0, 1, -0.765452, -0.472798, -0.683386 )
input_ray_pickable = true

[node name="CollisionShape" type="CollisionShape" parent="Spots/First"]
transform = Transform( 0.25, 0, 0, 0, 0.25, 0, 0, 0, 0.25, 0, 0, 0 )
shape = SubResource( 2 )

[node name="MeshInstance" type="MeshInstance" parent="Spots/First"]
transform = Transform( 0.25, 0, 0, 0, 0.25, 0, 0, 0, 0.25, 0, 0, 0 )
use_in_baked_light = true
mesh = SubResource( 4 )
material/0 = null

[node name="Second" type="Area" parent="Spots"]
transform = Transform( 1, 0, 0, 0, 1, 0, 0, 0, 1, 0.765452, -0.472798, -0.683386 )
input_ray_pickable = true

[node name="CollisionShape" type="CollisionShape" parent="Spots/Second"]
transform = Transform( 0.25, 0, 0, 0, 0.25, 0, 0, 0, 0.25, 0, 0, 0 )
shape = SubResource( 2 )

[node name="MeshInstance" type="MeshInstance" parent="Spots/Second"]
transform = Transform( 0.25, 0, 0, 0, 0.25, 0, 0, 0, 0.25, 0, 0, 0 )
use_in_baked_light = true
mesh = SubResource( 4 )
material/0 = null

[node name="Third" type="Area" parent="Spots"]
transform = Transform( 1, 0, 0, 0, 1, 0, 0, 0, 1, 0.765452, -0.472798, 0.683386 )
input_ray_pickable = true

[node name="CollisionShape" type="CollisionShape" parent="Spots/Third"]
transform = Transform( 0.25, 0, 0, 0, 0.25, 0, 0, 0, 0.25, 0, 0, 0 )
shape = SubResource( 2 )

[node name="MeshInstance" type="MeshInstance" parent="Spots/Third"]
transform = Transform( 0.25, 0, 0, 0, 0.25, 0, 0, 0, 0.25, 0, 0, 0 )
use_in_baked_light = true
mesh = SubResource( 4 )
material/0 = null

[node name="Fourth" type="Area" parent="Spots"]
transform = Transform( 1, 0, 0, 0, 1, 0, 0, 0, 1, -0.765452, -0.472798, 0.683386 )
input_ray_pickable = true

[node name="CollisionShape" type="CollisionShape" parent="Spots/Fourth"]
transform = Transform( 0.25, 0, 0, 0, 0.25, 0, 0, 0, 0.25, 0, 0, 0 )
shape = SubResource( 2 )

[node name="MeshInstance" type="MeshInstance" parent="Spots/Fourth"]
transform = Transform( 0.25, 0, 0, 0, 0.25, 0, 0, 0, 0.25, 0, 0, 0 )
use_in_baked_light = true
mesh = SubResource( 4 )
material/0 = null

[node name="Tween" type="Tween" parent="."]

[connection signal="input_event" from="Fountain/Area" to="." method="_on_FountainArea_input_event"]
[connection signal="input_event" from="Spots/First" to="." method="_on_FirstSpot_input_event"]
[connection signal="input_event" from="Spots/Second" to="." method="_on_SecondSpot_input_event"]
[connection signal="input_event" from="Spots/Third" to="." method="_on_ThirdSpot_input_event"]
[connection signal="input_event" from="Spots/Fourth" to="." method="_on_FourthSpot_input_event"]

[editable path="Fountain"]
