{
    "accessors" : [
        {
            "bufferView" : 0, 
            "componentType" : 5123, 
            "count" : 300, 
            "max" : [
                267
            ], 
            "min" : [
                0
            ], 
            "type" : "SCALAR"
        }, 
        {
            "bufferView" : 1, 
            "componentType" : 5126, 
            "count" : 268, 
            "max" : [
                1.4706132411956787, 
                1.6216124296188354, 
                0.5763443112373352
            ], 
            "min" : [
                -0.45285388827323914, 
                -0.08494330197572708, 
                -0.9474779367446899
            ], 
            "type" : "VEC3"
        }, 
        {
            "bufferView" : 2, 
            "componentType" : 5126, 
            "count" : 268, 
            "max" : [
                0.9746864438056946, 
                0.9325384497642517, 
                0.996636688709259
            ], 
            "min" : [
                -0.9863150119781494, 
                -0.9956480860710144, 
                -0.9937983155250549
            ], 
            "type" : "VEC3"
        }, 
        {
            "bufferView" : 3, 
            "componentType" : 5126, 
            "count" : 268, 
            "max" : [
                0.9692977666854858, 
                0.77215975522995, 
                0.989741325378418, 
                1.0
            ], 
            "min" : [
                -0.9929646849632263, 
                -0.8507080078125, 
                -0.9981099963188171, 
                1.0
            ], 
            "type" : "VEC4"
        }, 
        {
            "bufferView" : 4, 
            "componentType" : 5126, 
            "count" : 268, 
            "max" : [
                1.0, 
                1.0
            ], 
            "min" : [
                0.0, 
                5.960464477539063e-08
            ], 
            "type" : "VEC2"
        }
    ], 
    "asset" : {
        "generator" : "Khronos Blender glTF 2.0 exporter", 
        "version" : "2.0"
    }, 
    "bufferViews" : [
        {
            "buffer" : 0, 
            "byteLength" : 600, 
            "byteOffset" : 0, 
            "target" : 34963
        }, 
        {
            "buffer" : 0, 
            "byteLength" : 3216, 
            "byteOffset" : 600, 
            "target" : 34962
        }, 
        {
            "buffer" : 0, 
            "byteLength" : 3216, 
            "byteOffset" : 3816, 
            "target" : 34962
        }, 
        {
            "buffer" : 0, 
            "byteLength" : 4288, 
            "byteOffset" : 7032, 
            "target" : 34962
        }, 
        {
            "buffer" : 0, 
            "byteLength" : 2144, 
            "byteOffset" : 11320, 
            "target" : 34962
        }
    ], 
    "buffers" : [
        {
            "byteLength" : 13464, 
            "uri" : "tree_fountain.bin"
        }
    ], 
    "meshes" : [
        {
            "name" : "Cube", 
            "primitives" : [
                {
                    "attributes" : {
                        "NORMAL" : 2, 
                        "POSITION" : 1, 
                        "TANGENT" : 3, 
                        "TEXCOORD_0" : 4
                    }, 
                    "indices" : 0
                }
            ]
        }
    ], 
    "nodes" : [
        {
            "mesh" : 0, 
            "name" : "TreeFountain", 
            "rotation" : [
                0.0, 
                -0.9992395043373108, 
                -0.0, 
                0.03899368643760681
            ], 
            "scale" : [
                1.1637845039367676, 
                1.1637845039367676, 
                1.1637845039367676
            ]
        }
    ], 
    "scene" : 0, 
    "scenes" : [
        {
            "name" : "Scene", 
            "nodes" : [
                0
            ]
        }
    ]
}
