{
    "accessors" : [
        {
            "bufferView" : 0, 
            "componentType" : 5123, 
            "count" : 846, 
            "max" : [
                733
            ], 
            "min" : [
                0
            ], 
            "type" : "SCALAR"
        }, 
        {
            "bufferView" : 1, 
            "componentType" : 5126, 
            "count" : 734, 
            "max" : [
                0.42076975107192993, 
                2.179875373840332, 
                0.6043508648872375
            ], 
            "min" : [
                -1.3429479598999023, 
                -0.24003426730632782, 
                -0.5762870907783508
            ], 
            "type" : "VEC3"
        }, 
        {
            "bufferView" : 2, 
            "componentType" : 5126, 
            "count" : 734, 
            "max" : [
                0.9945143461227417, 
                0.9958480000495911, 
                0.9870511293411255
            ], 
            "min" : [
                -0.9975194334983826, 
                -0.9897502064704895, 
                -0.9989940524101257
            ], 
            "type" : "VEC3"
        }, 
        {
            "bufferView" : 3, 
            "componentType" : 5126, 
            "count" : 734, 
            "max" : [
                0.9938042163848877, 
                0.9967415928840637, 
                0.993297815322876, 
                1.0
            ], 
            "min" : [
                -0.9980589747428894, 
                -0.9454892873764038, 
                -0.9869903922080994, 
                1.0
            ], 
            "type" : "VEC4"
        }, 
        {
            "bufferView" : 4, 
            "componentType" : 5126, 
            "count" : 734, 
            "max" : [
                1.0, 
                1.0
            ], 
            "min" : [
                0.0, 
                0.0
            ], 
            "type" : "VEC2"
        }
    ], 
    "asset" : {
        "generator" : "Khronos Blender glTF 2.0 exporter", 
        "version" : "2.0"
    }, 
    "bufferViews" : [
        {
            "buffer" : 0, 
            "byteLength" : 1692, 
            "byteOffset" : 0, 
            "target" : 34963
        }, 
        {
            "buffer" : 0, 
            "byteLength" : 8808, 
            "byteOffset" : 1692, 
            "target" : 34962
        }, 
        {
            "buffer" : 0, 
            "byteLength" : 8808, 
            "byteOffset" : 10500, 
            "target" : 34962
        }, 
        {
            "buffer" : 0, 
            "byteLength" : 11744, 
            "byteOffset" : 19308, 
            "target" : 34962
        }, 
        {
            "buffer" : 0, 
            "byteLength" : 5872, 
            "byteOffset" : 31052, 
            "target" : 34962
        }
    ], 
    "buffers" : [
        {
            "byteLength" : 36924, 
            "uri" : "hand_fountain.bin"
        }
    ], 
    "meshes" : [
        {
            "name" : "Cube", 
            "primitives" : [
                {
                    "attributes" : {
                        "NORMAL" : 2, 
                        "POSITION" : 1, 
                        "TANGENT" : 3, 
                        "TEXCOORD_0" : 4
                    }, 
                    "indices" : 0
                }
            ]
        }
    ], 
    "nodes" : [
        {
            "mesh" : 0, 
            "name" : "HandFountain", 
            "rotation" : [
                0.0, 
                0.6779683232307434, 
                -0.0, 
                0.7350911498069763
            ], 
            "scale" : [
                1.3887560367584229, 
                1.3887560367584229, 
                1.3887560367584229
            ]
        }
    ], 
    "scene" : 0, 
    "scenes" : [
        {
            "name" : "Scene", 
            "nodes" : [
                0
            ]
        }
    ]
}
