{
    "accessors" : [
        {
            "bufferView" : 0, 
            "componentType" : 5123, 
            "count" : 4110, 
            "max" : [
                3151
            ], 
            "min" : [
                0
            ], 
            "type" : "SCALAR"
        }, 
        {
            "bufferView" : 1, 
            "componentType" : 5126, 
            "count" : 3152, 
            "max" : [
                0.9420912861824036, 
                2.2144720554351807, 
                1.0791563987731934
            ], 
            "min" : [
                -2.1316208839416504, 
                -0.007362671196460724, 
                -1.0791563987731934
            ], 
            "type" : "VEC3"
        }, 
        {
            "bufferView" : 2, 
            "componentType" : 5126, 
            "count" : 3152, 
            "max" : [
                0.9999597668647766, 
                1.0, 
                0.9987713098526001
            ], 
            "min" : [
                -0.9999597072601318, 
                -0.9920446276664734, 
                -0.9981452226638794
            ], 
            "type" : "VEC3"
        }, 
        {
            "bufferView" : 3, 
            "componentType" : 5126, 
            "count" : 3152, 
            "max" : [
                1.0, 
                1.0
            ], 
            "min" : [
                0.0, 
                5.960464477539063e-08
            ], 
            "type" : "VEC2"
        }
    ], 
    "asset" : {
        "generator" : "Khronos Blender glTF 2.0 exporter", 
        "version" : "2.0"
    }, 
    "bufferViews" : [
        {
            "buffer" : 0, 
            "byteLength" : 8220, 
            "byteOffset" : 0, 
            "target" : 34963
        }, 
        {
            "buffer" : 0, 
            "byteLength" : 37824, 
            "byteOffset" : 8220, 
            "target" : 34962
        }, 
        {
            "buffer" : 0, 
            "byteLength" : 37824, 
            "byteOffset" : 46044, 
            "target" : 34962
        }, 
        {
            "buffer" : 0, 
            "byteLength" : 25216, 
            "byteOffset" : 83868, 
            "target" : 34962
        }
    ], 
    "buffers" : [
        {
            "byteLength" : 109084, 
            "uri" : "sea_pot.bin"
        }
    ], 
    "meshes" : [
        {
            "name" : "Cylinder", 
            "primitives" : [
                {
                    "attributes" : {
                        "NORMAL" : 2, 
                        "POSITION" : 1, 
                        "TEXCOORD_0" : 3
                    }, 
                    "indices" : 0
                }
            ]
        }
    ], 
    "nodes" : [
        {
            "name" : "Top", 
            "translation" : [
                0.0, 
                2.8541200160980225, 
                -0.0
            ]
        }, 
        {
            "mesh" : 0, 
            "name" : "SeaPot", 
            "scale" : [
                1.311682939529419, 
                1.311682939529419, 
                1.311682939529419
            ]
        }
    ], 
    "scene" : 0, 
    "scenes" : [
        {
            "name" : "Scene", 
            "nodes" : [
                0, 
                1
            ]
        }
    ]
}
