{
    "accessors" : [
        {
            "bufferView" : 0, 
            "componentType" : 5121, 
            "count" : 288, 
            "max" : [
                241
            ], 
            "min" : [
                0
            ], 
            "type" : "SCALAR"
        }, 
        {
            "bufferView" : 1, 
            "componentType" : 5126, 
            "count" : 242, 
            "max" : [
                0.2065448760986328, 
                0.43495479226112366, 
                0.23808106780052185
            ], 
            "min" : [
                -0.2626475989818573, 
                -0.055080849677324295, 
                -0.23462669551372528
            ], 
            "type" : "VEC3"
        }, 
        {
            "bufferView" : 2, 
            "componentType" : 5126, 
            "count" : 242, 
            "max" : [
                0.9528061151504517, 
                0.8857268691062927, 
                0.9842195510864258
            ], 
            "min" : [
                -0.9402328729629517, 
                -0.9976338148117065, 
                -0.9566976428031921
            ], 
            "type" : "VEC3"
        }, 
        {
            "bufferView" : 3, 
            "componentType" : 5126, 
            "count" : 242, 
            "max" : [
                0.9990702867507935, 
                0.982519268989563, 
                0.9986050128936768, 
                1.0
            ], 
            "min" : [
                -0.9453811049461365, 
                -0.4633001983165741, 
                -0.981366753578186, 
                1.0
            ], 
            "type" : "VEC4"
        }, 
        {
            "bufferView" : 4, 
            "componentType" : 5126, 
            "count" : 242, 
            "max" : [
                1.0, 
                1.0
            ], 
            "min" : [
                0.0, 
                0.0
            ], 
            "type" : "VEC2"
        }
    ], 
    "asset" : {
        "generator" : "Khronos Blender glTF 2.0 exporter", 
        "version" : "2.0"
    }, 
    "bufferViews" : [
        {
            "buffer" : 0, 
            "byteLength" : 288, 
            "byteOffset" : 0, 
            "target" : 34963
        }, 
        {
            "buffer" : 0, 
            "byteLength" : 2904, 
            "byteOffset" : 288, 
            "target" : 34962
        }, 
        {
            "buffer" : 0, 
            "byteLength" : 2904, 
            "byteOffset" : 3192, 
            "target" : 34962
        }, 
        {
            "buffer" : 0, 
            "byteLength" : 3872, 
            "byteOffset" : 6096, 
            "target" : 34962
        }, 
        {
            "buffer" : 0, 
            "byteLength" : 1936, 
            "byteOffset" : 9968, 
            "target" : 34962
        }
    ], 
    "buffers" : [
        {
            "byteLength" : 11904, 
            "uri" : "bonsaishakan_phase1.bin"
        }
    ], 
    "meshes" : [
        {
            "name" : "Cube", 
            "primitives" : [
                {
                    "attributes" : {
                        "NORMAL" : 2, 
                        "POSITION" : 1, 
                        "TANGENT" : 3, 
                        "TEXCOORD_0" : 4
                    }, 
                    "indices" : 0
                }
            ]
        }
    ], 
    "nodes" : [
        {
            "mesh" : 0, 
            "name" : "BonsaishakanPhase1", 
            "scale" : [
                1.1963050365447998, 
                1.1963050365447998, 
                1.1963050365447998
            ]
        }
    ], 
    "scene" : 0, 
    "scenes" : [
        {
            "name" : "Scene", 
            "nodes" : [
                0
            ]
        }
    ]
}
