{
    "accessors" : [
        {
            "bufferView" : 0, 
            "componentType" : 5123, 
            "count" : 660, 
            "max" : [
                443
            ], 
            "min" : [
                0
            ], 
            "type" : "SCALAR"
        }, 
        {
            "bufferView" : 1, 
            "componentType" : 5126, 
            "count" : 444, 
            "max" : [
                1.2439707517623901, 
                1.2353373765945435, 
                0.3412298560142517
            ], 
            "min" : [
                -1.1117503643035889, 
                -0.05409783124923706, 
                -0.15597756206989288
            ], 
            "type" : "VEC3"
        }, 
        {
            "bufferView" : 2, 
            "componentType" : 5126, 
            "count" : 444, 
            "max" : [
                0.9996232986450195, 
                1.0, 
                0.9831139445304871
            ], 
            "min" : [
                -0.9996233582496643, 
                -1.0, 
                -0.9523095488548279
            ], 
            "type" : "VEC3"
        }, 
        {
            "bufferView" : 3, 
            "componentType" : 5126, 
            "count" : 444, 
            "max" : [
                1.0, 
                1.0
            ], 
            "min" : [
                0.0, 
                0.0
            ], 
            "type" : "VEC2"
        }
    ], 
    "asset" : {
        "generator" : "Khronos Blender glTF 2.0 exporter", 
        "version" : "2.0"
    }, 
    "bufferViews" : [
        {
            "buffer" : 0, 
            "byteLength" : 1320, 
            "byteOffset" : 0, 
            "target" : 34963
        }, 
        {
            "buffer" : 0, 
            "byteLength" : 5328, 
            "byteOffset" : 1320, 
            "target" : 34962
        }, 
        {
            "buffer" : 0, 
            "byteLength" : 5328, 
            "byteOffset" : 6648, 
            "target" : 34962
        }, 
        {
            "buffer" : 0, 
            "byteLength" : 3552, 
            "byteOffset" : 11976, 
            "target" : 34962
        }
    ], 
    "buffers" : [
        {
            "byteLength" : 15528, 
            "uri" : "sunflower_phase1.bin"
        }
    ], 
    "meshes" : [
        {
            "name" : "Cube.003", 
            "primitives" : [
                {
                    "attributes" : {
                        "NORMAL" : 2, 
                        "POSITION" : 1, 
                        "TEXCOORD_0" : 3
                    }, 
                    "indices" : 0
                }
            ]
        }
    ], 
    "nodes" : [
        {
            "mesh" : 0, 
            "name" : "SunflowerPhase1"
        }
    ], 
    "scene" : 0, 
    "scenes" : [
        {
            "name" : "Scene", 
            "nodes" : [
                0
            ]
        }
    ]
}
