{
    "accessors" : [
        {
            "bufferView" : 0, 
            "componentType" : 5123, 
            "count" : 510, 
            "max" : [
                389
            ], 
            "min" : [
                0
            ], 
            "type" : "SCALAR"
        }, 
        {
            "bufferView" : 1, 
            "componentType" : 5126, 
            "count" : 390, 
            "max" : [
                1.7968616485595703, 
                2.833589792251587, 
                1.3407241106033325
            ], 
            "min" : [
                -1.7468129396438599, 
                -0.012413263320922852, 
                -1.410951852798462
            ], 
            "type" : "VEC3"
        }, 
        {
            "bufferView" : 2, 
            "componentType" : 5126, 
            "count" : 390, 
            "max" : [
                0.9999938607215881, 
                0.9999858140945435, 
                0.9999951720237732
            ], 
            "min" : [
                -0.9999927282333374, 
                -0.9999998211860657, 
                -0.9999955296516418
            ], 
            "type" : "VEC3"
        }, 
        {
            "bufferView" : 3, 
            "componentType" : 5126, 
            "count" : 390, 
            "max" : [
                0.9999862313270569, 
                0.4733865261077881, 
                0.9999938011169434, 
                1.0
            ], 
            "min" : [
                -0.9999984502792358, 
                -0.9999176263809204, 
                -0.9992287158966064, 
                1.0
            ], 
            "type" : "VEC4"
        }, 
        {
            "bufferView" : 4, 
            "componentType" : 5126, 
            "count" : 390, 
            "max" : [
                0.9999999403953552, 
                1.0
            ], 
            "min" : [
                0.0, 
                0.0
            ], 
            "type" : "VEC2"
        }
    ], 
    "asset" : {
        "generator" : "Khronos Blender glTF 2.0 exporter", 
        "version" : "2.0"
    }, 
    "bufferViews" : [
        {
            "buffer" : 0, 
            "byteLength" : 1020, 
            "byteOffset" : 0, 
            "target" : 34963
        }, 
        {
            "buffer" : 0, 
            "byteLength" : 4680, 
            "byteOffset" : 1020, 
            "target" : 34962
        }, 
        {
            "buffer" : 0, 
            "byteLength" : 4680, 
            "byteOffset" : 5700, 
            "target" : 34962
        }, 
        {
            "buffer" : 0, 
            "byteLength" : 6240, 
            "byteOffset" : 10380, 
            "target" : 34962
        }, 
        {
            "buffer" : 0, 
            "byteLength" : 3120, 
            "byteOffset" : 16620, 
            "target" : 34962
        }
    ], 
    "buffers" : [
        {
            "byteLength" : 19740, 
            "uri" : "trophy_gold.bin"
        }
    ], 
    "meshes" : [
        {
            "name" : "Cylinder", 
            "primitives" : [
                {
                    "attributes" : {
                        "NORMAL" : 2, 
                        "POSITION" : 1, 
                        "TANGENT" : 3, 
                        "TEXCOORD_0" : 4
                    }, 
                    "indices" : 0
                }
            ]
        }
    ], 
    "nodes" : [
        {
            "name" : "Top", 
            "translation" : [
                0.023099809885025024, 
                2.802778482437134, 
                -0.041354842483997345
            ]
        }, 
        {
            "mesh" : 0, 
            "name" : "TrophyGold"
        }
    ], 
    "scene" : 0, 
    "scenes" : [
        {
            "name" : "Scene", 
            "nodes" : [
                0, 
                1
            ]
        }
    ]
}
