{
    "accessors" : [
        {
            "bufferView" : 0, 
            "componentType" : 5123, 
            "count" : 378, 
            "max" : [
                325
            ], 
            "min" : [
                0
            ], 
            "type" : "SCALAR"
        }, 
        {
            "bufferView" : 1, 
            "componentType" : 5126, 
            "count" : 326, 
            "max" : [
                0.6393525004386902, 
                1.2334234714508057, 
                0.20159894227981567
            ], 
            "min" : [
                -0.6207712888717651, 
                -0.01963752880692482, 
                -0.4971691370010376
            ], 
            "type" : "VEC3"
        }, 
        {
            "bufferView" : 2, 
            "componentType" : 5126, 
            "count" : 326, 
            "max" : [
                0.9571285843849182, 
                0.9397066235542297, 
                0.9814517498016357
            ], 
            "min" : [
                -0.9496285319328308, 
                -0.8999322652816772, 
                -0.9813924431800842
            ], 
            "type" : "VEC3"
        }, 
        {
            "bufferView" : 3, 
            "componentType" : 5126, 
            "count" : 326, 
            "max" : [
                0.9864974021911621, 
                0.837116003036499, 
                0.9486294984817505, 
                1.0
            ], 
            "min" : [
                -0.9868000745773315, 
                -0.978870153427124, 
                -0.9891682863235474, 
                1.0
            ], 
            "type" : "VEC4"
        }, 
        {
            "bufferView" : 4, 
            "componentType" : 5126, 
            "count" : 326, 
            "max" : [
                1.0, 
                1.0
            ], 
            "min" : [
                0.0, 
                5.960464477539063e-08
            ], 
            "type" : "VEC2"
        }
    ], 
    "asset" : {
        "generator" : "Khronos Blender glTF 2.0 exporter", 
        "version" : "2.0"
    }, 
    "bufferViews" : [
        {
            "buffer" : 0, 
            "byteLength" : 756, 
            "byteOffset" : 0, 
            "target" : 34963
        }, 
        {
            "buffer" : 0, 
            "byteLength" : 3912, 
            "byteOffset" : 756, 
            "target" : 34962
        }, 
        {
            "buffer" : 0, 
            "byteLength" : 3912, 
            "byteOffset" : 4668, 
            "target" : 34962
        }, 
        {
            "buffer" : 0, 
            "byteLength" : 5216, 
            "byteOffset" : 8580, 
            "target" : 34962
        }, 
        {
            "buffer" : 0, 
            "byteLength" : 2608, 
            "byteOffset" : 13796, 
            "target" : 34962
        }
    ], 
    "buffers" : [
        {
            "byteLength" : 16404, 
            "uri" : "archid_fountain.bin"
        }
    ], 
    "meshes" : [
        {
            "name" : "Cube", 
            "primitives" : [
                {
                    "attributes" : {
                        "NORMAL" : 2, 
                        "POSITION" : 1, 
                        "TANGENT" : 3, 
                        "TEXCOORD_0" : 4
                    }, 
                    "indices" : 0
                }
            ]
        }
    ], 
    "nodes" : [
        {
            "mesh" : 0, 
            "name" : "ArchidFountain", 
            "rotation" : [
                0.0, 
                -0.10731097310781479, 
                -0.0, 
                0.9942256212234497
            ], 
            "scale" : [
                2.699634313583374, 
                2.699634313583374, 
                2.699634313583374
            ]
        }
    ], 
    "scene" : 0, 
    "scenes" : [
        {
            "name" : "Scene", 
            "nodes" : [
                0
            ]
        }
    ]
}
