{
    "accessors" : [
        {
            "bufferView" : 0, 
            "componentType" : 5123, 
            "count" : 828, 
            "max" : [
                713
            ], 
            "min" : [
                0
            ], 
            "type" : "SCALAR"
        }, 
        {
            "bufferView" : 1, 
            "componentType" : 5126, 
            "count" : 714, 
            "max" : [
                0.8540215492248535, 
                1.9947518110275269, 
                1.1736674308776855
            ], 
            "min" : [
                -1.2335811853408813, 
                -0.06305718421936035, 
                -1.020670771598816
            ], 
            "type" : "VEC3"
        }, 
        {
            "bufferView" : 2, 
            "componentType" : 5126, 
            "count" : 714, 
            "max" : [
                0.9999529719352722, 
                0.9877722859382629, 
                0.9998847842216492
            ], 
            "min" : [
                -0.9950398802757263, 
                -0.983355700969696, 
                -0.9959447979927063
            ], 
            "type" : "VEC3"
        }, 
        {
            "bufferView" : 3, 
            "componentType" : 5126, 
            "count" : 714, 
            "max" : [
                0.9914941191673279, 
                0.9901186227798462, 
                0.9972149729728699, 
                1.0
            ], 
            "min" : [
                -0.9944019913673401, 
                -0.9957436323165894, 
                -0.9985067844390869, 
                1.0
            ], 
            "type" : "VEC4"
        }, 
        {
            "bufferView" : 4, 
            "componentType" : 5126, 
            "count" : 714, 
            "max" : [
                1.0, 
                1.0
            ], 
            "min" : [
                0.0, 
                0.0
            ], 
            "type" : "VEC2"
        }
    ], 
    "asset" : {
        "generator" : "Khronos Blender glTF 2.0 exporter", 
        "version" : "2.0"
    }, 
    "bufferViews" : [
        {
            "buffer" : 0, 
            "byteLength" : 1656, 
            "byteOffset" : 0, 
            "target" : 34963
        }, 
        {
            "buffer" : 0, 
            "byteLength" : 8568, 
            "byteOffset" : 1656, 
            "target" : 34962
        }, 
        {
            "buffer" : 0, 
            "byteLength" : 8568, 
            "byteOffset" : 10224, 
            "target" : 34962
        }, 
        {
            "buffer" : 0, 
            "byteLength" : 11424, 
            "byteOffset" : 18792, 
            "target" : 34962
        }, 
        {
            "buffer" : 0, 
            "byteLength" : 5712, 
            "byteOffset" : 30216, 
            "target" : 34962
        }
    ], 
    "buffers" : [
        {
            "byteLength" : 35928, 
            "uri" : "hunter_fountain.bin"
        }
    ], 
    "meshes" : [
        {
            "name" : "Cube", 
            "primitives" : [
                {
                    "attributes" : {
                        "NORMAL" : 2, 
                        "POSITION" : 1, 
                        "TANGENT" : 3, 
                        "TEXCOORD_0" : 4
                    }, 
                    "indices" : 0
                }
            ]
        }
    ], 
    "nodes" : [
        {
            "mesh" : 0, 
            "name" : "HunterFountain", 
            "scale" : [
                1.1744418144226074, 
                1.1744418144226074, 
                1.1744418144226074
            ]
        }
    ], 
    "scene" : 0, 
    "scenes" : [
        {
            "name" : "Scene", 
            "nodes" : [
                0
            ]
        }
    ]
}
