{
    "accessors" : [
        {
            "bufferView" : 0, 
            "componentType" : 5123, 
            "count" : 1470, 
            "max" : [
                1053
            ], 
            "min" : [
                0
            ], 
            "type" : "SCALAR"
        }, 
        {
            "bufferView" : 1, 
            "componentType" : 5126, 
            "count" : 1054, 
            "max" : [
                0.30865994095802307, 
                1.780365228652954, 
                0.3086782395839691
            ], 
            "min" : [
                -0.3198658525943756, 
                -0.02497294172644615, 
                -0.31984731554985046
            ], 
            "type" : "VEC3"
        }, 
        {
            "bufferView" : 2, 
            "componentType" : 5126, 
            "count" : 1054, 
            "max" : [
                0.9998509883880615, 
                0.9433600306510925, 
                0.9994290471076965
            ], 
            "min" : [
                -0.999950647354126, 
                -0.7101092338562012, 
                -0.9967195391654968
            ], 
            "type" : "VEC3"
        }, 
        {
            "bufferView" : 3, 
            "componentType" : 5126, 
            "count" : 1054, 
            "max" : [
                0.9910679459571838, 
                0.9975695610046387, 
                0.9983069896697998, 
                1.0
            ], 
            "min" : [
                -0.9450161457061768, 
                -0.9998524188995361, 
                -0.898193895816803, 
                1.0
            ], 
            "type" : "VEC4"
        }, 
        {
            "bufferView" : 4, 
            "componentType" : 5126, 
            "count" : 1054, 
            "max" : [
                1.0, 
                1.0
            ], 
            "min" : [
                0.0, 
                0.0
            ], 
            "type" : "VEC2"
        }
    ], 
    "asset" : {
        "generator" : "Khronos Blender glTF 2.0 exporter", 
        "version" : "2.0"
    }, 
    "bufferViews" : [
        {
            "buffer" : 0, 
            "byteLength" : 2940, 
            "byteOffset" : 0, 
            "target" : 34963
        }, 
        {
            "buffer" : 0, 
            "byteLength" : 12648, 
            "byteOffset" : 2940, 
            "target" : 34962
        }, 
        {
            "buffer" : 0, 
            "byteLength" : 12648, 
            "byteOffset" : 15588, 
            "target" : 34962
        }, 
        {
            "buffer" : 0, 
            "byteLength" : 16864, 
            "byteOffset" : 28236, 
            "target" : 34962
        }, 
        {
            "buffer" : 0, 
            "byteLength" : 8432, 
            "byteOffset" : 45100, 
            "target" : 34962
        }
    ], 
    "buffers" : [
        {
            "byteLength" : 53532, 
            "uri" : "tulip_phase3.bin"
        }
    ], 
    "meshes" : [
        {
            "name" : "Cube.005", 
            "primitives" : [
                {
                    "attributes" : {
                        "NORMAL" : 2, 
                        "POSITION" : 1, 
                        "TANGENT" : 3, 
                        "TEXCOORD_0" : 4
                    }, 
                    "indices" : 0
                }
            ]
        }
    ], 
    "nodes" : [
        {
            "mesh" : 0, 
            "name" : "TulipPhase3", 
            "scale" : [
                1.9325902462005615, 
                1.9325902462005615, 
                1.9325902462005615
            ]
        }
    ], 
    "scene" : 0, 
    "scenes" : [
        {
            "name" : "Scene", 
            "nodes" : [
                0
            ]
        }
    ]
}
