{
    "accessors" : [
        {
            "bufferView" : 0, 
            "componentType" : 5123, 
            "count" : 1362, 
            "max" : [
                973
            ], 
            "min" : [
                0
            ], 
            "type" : "SCALAR"
        }, 
        {
            "bufferView" : 1, 
            "componentType" : 5126, 
            "count" : 974, 
            "max" : [
                0.42612916231155396, 
                1.7256356477737427, 
                0.4113149642944336
            ], 
            "min" : [
                -0.4261291027069092, 
                -0.04595983028411865, 
                -0.44094300270080566
            ], 
            "type" : "VEC3"
        }, 
        {
            "bufferView" : 2, 
            "componentType" : 5126, 
            "count" : 974, 
            "max" : [
                0.9994552135467529, 
                0.9998710751533508, 
                0.9994289875030518
            ], 
            "min" : [
                -0.9998883008956909, 
                -0.7179029583930969, 
                -0.9837291240692139
            ], 
            "type" : "VEC3"
        }, 
        {
            "bufferView" : 3, 
            "componentType" : 5126, 
            "count" : 974, 
            "max" : [
                1.0, 
                1.0
            ], 
            "min" : [
                0.0, 
                0.0
            ], 
            "type" : "VEC2"
        }
    ], 
    "asset" : {
        "generator" : "Khronos Blender glTF 2.0 exporter", 
        "version" : "2.0"
    }, 
    "bufferViews" : [
        {
            "buffer" : 0, 
            "byteLength" : 2724, 
            "byteOffset" : 0, 
            "target" : 34963
        }, 
        {
            "buffer" : 0, 
            "byteLength" : 11688, 
            "byteOffset" : 2724, 
            "target" : 34962
        }, 
        {
            "buffer" : 0, 
            "byteLength" : 11688, 
            "byteOffset" : 14412, 
            "target" : 34962
        }, 
        {
            "buffer" : 0, 
            "byteLength" : 7792, 
            "byteOffset" : 26100, 
            "target" : 34962
        }
    ], 
    "buffers" : [
        {
            "byteLength" : 33892, 
            "uri" : "tulip_phase2.bin"
        }
    ], 
    "meshes" : [
        {
            "name" : "Icosphere", 
            "primitives" : [
                {
                    "attributes" : {
                        "NORMAL" : 2, 
                        "POSITION" : 1, 
                        "TEXCOORD_0" : 3
                    }, 
                    "indices" : 0
                }
            ]
        }
    ], 
    "nodes" : [
        {
            "mesh" : 0, 
            "name" : "TulipPhase2", 
            "scale" : [
                1.425252079963684, 
                1.425252079963684, 
                1.425252079963684
            ], 
            "translation" : [
                -0.010828286409378052, 
                0.01724187657237053, 
                0.010321088135242462
            ]
        }
    ], 
    "scene" : 0, 
    "scenes" : [
        {
            "name" : "Scene", 
            "nodes" : [
                0
            ]
        }
    ]
}
