{
    "accessors" : [
        {
            "bufferView" : 0, 
            "componentType" : 5121, 
            "count" : 210, 
            "max" : [
                169
            ], 
            "min" : [
                0
            ], 
            "type" : "SCALAR"
        }, 
        {
            "bufferView" : 1, 
            "componentType" : 5126, 
            "count" : 170, 
            "max" : [
                0.902808427810669, 
                1.0196646451950073, 
                0.7703039050102234
            ], 
            "min" : [
                -0.9062087535858154, 
                -0.009372323751449585, 
                -0.9501736760139465
            ], 
            "type" : "VEC3"
        }, 
        {
            "bufferView" : 2, 
            "componentType" : 5126, 
            "count" : 170, 
            "max" : [
                0.9799920916557312, 
                0.9198504686355591, 
                0.9957457184791565
            ], 
            "min" : [
                -0.9984807372093201, 
                -0.769443929195404, 
                -0.978505551815033
            ], 
            "type" : "VEC3"
        }, 
        {
            "bufferView" : 3, 
            "componentType" : 5126, 
            "count" : 170, 
            "max" : [
                0.9812787771224976, 
                0.9994350075721741, 
                0.9731247425079346, 
                1.0
            ], 
            "min" : [
                -0.9829474687576294, 
                -0.9992284774780273, 
                -0.9639357924461365, 
                1.0
            ], 
            "type" : "VEC4"
        }, 
        {
            "bufferView" : 4, 
            "componentType" : 5126, 
            "count" : 170, 
            "max" : [
                1.0, 
                1.0
            ], 
            "min" : [
                0.0, 
                0.0
            ], 
            "type" : "VEC2"
        }
    ], 
    "asset" : {
        "generator" : "Khronos Blender glTF 2.0 exporter", 
        "version" : "2.0"
    }, 
    "bufferViews" : [
        {
            "buffer" : 0, 
            "byteLength" : 210, 
            "byteOffset" : 0, 
            "target" : 34963
        }, 
        {
            "buffer" : 0, 
            "byteLength" : 2040, 
            "byteOffset" : 212, 
            "target" : 34962
        }, 
        {
            "buffer" : 0, 
            "byteLength" : 2040, 
            "byteOffset" : 2252, 
            "target" : 34962
        }, 
        {
            "buffer" : 0, 
            "byteLength" : 2720, 
            "byteOffset" : 4292, 
            "target" : 34962
        }, 
        {
            "buffer" : 0, 
            "byteLength" : 1360, 
            "byteOffset" : 7012, 
            "target" : 34962
        }
    ], 
    "buffers" : [
        {
            "byteLength" : 8372, 
            "uri" : "cactus_phase1.bin"
        }
    ], 
    "meshes" : [
        {
            "name" : "Sphere", 
            "primitives" : [
                {
                    "attributes" : {
                        "NORMAL" : 2, 
                        "POSITION" : 1, 
                        "TANGENT" : 3, 
                        "TEXCOORD_0" : 4
                    }, 
                    "indices" : 0
                }
            ]
        }
    ], 
    "nodes" : [
        {
            "mesh" : 0, 
            "name" : "CactusPhase1", 
            "scale" : [
                0.6010220646858215, 
                0.6010220646858215, 
                0.6010220646858215
            ]
        }
    ], 
    "scene" : 0, 
    "scenes" : [
        {
            "name" : "Scene", 
            "nodes" : [
                0
            ]
        }
    ]
}
