{
    "accessors" : [
        {
            "bufferView" : 0, 
            "componentType" : 5123, 
            "count" : 1224, 
            "max" : [
                1001
            ], 
            "min" : [
                0
            ], 
            "type" : "SCALAR"
        }, 
        {
            "bufferView" : 1, 
            "componentType" : 5126, 
            "count" : 1002, 
            "max" : [
                0.4875696003437042, 
                2.9149162769317627, 
                0.6099533438682556
            ], 
            "min" : [
                -1.6537275314331055, 
                -0.23140013217926025, 
                -1.1789517402648926
            ], 
            "type" : "VEC3"
        }, 
        {
            "bufferView" : 2, 
            "componentType" : 5126, 
            "count" : 1002, 
            "max" : [
                0.9991268515586853, 
                1.0, 
                0.9944562911987305
            ], 
            "min" : [
                -0.9951333999633789, 
                -1.0, 
                -0.9959326386451721
            ], 
            "type" : "VEC3"
        }, 
        {
            "bufferView" : 3, 
            "componentType" : 5126, 
            "count" : 1002, 
            "max" : [
                1.0, 
                1.0
            ], 
            "min" : [
                0.0, 
                0.0
            ], 
            "type" : "VEC2"
        }
    ], 
    "asset" : {
        "generator" : "Khronos Blender glTF 2.0 exporter", 
        "version" : "2.0"
    }, 
    "bufferViews" : [
        {
            "buffer" : 0, 
            "byteLength" : 2448, 
            "byteOffset" : 0, 
            "target" : 34963
        }, 
        {
            "buffer" : 0, 
            "byteLength" : 12024, 
            "byteOffset" : 2448, 
            "target" : 34962
        }, 
        {
            "buffer" : 0, 
            "byteLength" : 12024, 
            "byteOffset" : 14472, 
            "target" : 34962
        }, 
        {
            "buffer" : 0, 
            "byteLength" : 8016, 
            "byteOffset" : 26496, 
            "target" : 34962
        }
    ], 
    "buffers" : [
        {
            "byteLength" : 34512, 
            "uri" : "hand_pot.bin"
        }
    ], 
    "meshes" : [
        {
            "name" : "Plane", 
            "primitives" : [
                {
                    "attributes" : {
                        "NORMAL" : 2, 
                        "POSITION" : 1, 
                        "TEXCOORD_0" : 3
                    }, 
                    "indices" : 0
                }
            ]
        }
    ], 
    "nodes" : [
        {
            "name" : "Top", 
            "translation" : [
                -0.14392536878585815, 
                3.7064707279205322, 
                1.0980113744735718
            ]
        }, 
        {
            "mesh" : 0, 
            "name" : "HandPot", 
            "rotation" : [
                0.0, 
                0.7805920839309692, 
                -0.0, 
                0.6250408291816711
            ], 
            "scale" : [
                1.2873119115829468, 
                1.2873119115829468, 
                1.2873119115829468
            ]
        }
    ], 
    "scene" : 0, 
    "scenes" : [
        {
            "name" : "Scene", 
            "nodes" : [
                1, 
                0
            ]
        }
    ]
}
