{
    "accessors" : [
        {
            "bufferView" : 0, 
            "componentType" : 5123, 
            "count" : 3402, 
            "max" : [
                2903
            ], 
            "min" : [
                0
            ], 
            "type" : "SCALAR"
        }, 
        {
            "bufferView" : 1, 
            "componentType" : 5126, 
            "count" : 2904, 
            "max" : [
                18.492923736572266, 
                9.249792098999023, 
                3.4781675338745117
            ], 
            "min" : [
                -1.856816291809082, 
                -4.127432346343994, 
                -3.9124138355255127
            ], 
            "type" : "VEC3"
        }, 
        {
            "bufferView" : 2, 
            "componentType" : 5126, 
            "count" : 2904, 
            "max" : [
                0.9969749450683594, 
                0.9996695518493652, 
                0.9999465346336365
            ], 
            "min" : [
                -0.9960920214653015, 
                -0.996457576751709, 
                -0.9984435439109802
            ], 
            "type" : "VEC3"
        }, 
        {
            "bufferView" : 3, 
            "componentType" : 5126, 
            "count" : 2904, 
            "max" : [
                0.9991856217384338, 
                0.9998330473899841, 
                0.9947905540466309, 
                1.0
            ], 
            "min" : [
                -0.9971573352813721, 
                -0.9994910955429077, 
                -0.9999441504478455, 
                1.0
            ], 
            "type" : "VEC4"
        }, 
        {
            "bufferView" : 4, 
            "componentType" : 5126, 
            "count" : 2904, 
            "max" : [
                1.0, 
                1.0
            ], 
            "min" : [
                0.0, 
                0.0
            ], 
            "type" : "VEC2"
        }
    ], 
    "asset" : {
        "generator" : "Khronos Blender glTF 2.0 exporter", 
        "version" : "2.0"
    }, 
    "bufferViews" : [
        {
            "buffer" : 0, 
            "byteLength" : 6804, 
            "byteOffset" : 0, 
            "target" : 34963
        }, 
        {
            "buffer" : 0, 
            "byteLength" : 34848, 
            "byteOffset" : 6804, 
            "target" : 34962
        }, 
        {
            "buffer" : 0, 
            "byteLength" : 34848, 
            "byteOffset" : 41652, 
            "target" : 34962
        }, 
        {
            "buffer" : 0, 
            "byteLength" : 46464, 
            "byteOffset" : 76500, 
            "target" : 34962
        }, 
        {
            "buffer" : 0, 
            "byteLength" : 23232, 
            "byteOffset" : 122964, 
            "target" : 34962
        }
    ], 
    "buffers" : [
        {
            "byteLength" : 146196, 
            "uri" : "bonsai_moyogi_phase2.bin"
        }
    ], 
    "meshes" : [
        {
            "name" : "Icosphere.003", 
            "primitives" : [
                {
                    "attributes" : {
                        "NORMAL" : 2, 
                        "POSITION" : 1, 
                        "TANGENT" : 3, 
                        "TEXCOORD_0" : 4
                    }, 
                    "indices" : 0
                }
            ]
        }
    ], 
    "nodes" : [
        {
            "mesh" : 0, 
            "name" : "BonsaiMoyogiPhase2", 
            "scale" : [
                0.28163212537765503, 
                0.28163212537765503, 
                0.28163212537765503
            ], 
            "translation" : [
                -1.8222324848175049, 
                1.0788787603378296, 
                0.15653356909751892
            ]
        }
    ], 
    "scene" : 0, 
    "scenes" : [
        {
            "name" : "Scene", 
            "nodes" : [
                0
            ]
        }
    ]
}
