{
    "accessors" : [
        {
            "bufferView" : 0, 
            "componentType" : 5123, 
            "count" : 516, 
            "max" : [
                465
            ], 
            "min" : [
                0
            ], 
            "type" : "SCALAR"
        }, 
        {
            "bufferView" : 1, 
            "componentType" : 5126, 
            "count" : 466, 
            "max" : [
                0.6246429681777954, 
                1.8383642435073853, 
                0.40141165256500244
            ], 
            "min" : [
                -0.5574992299079895, 
                -0.12518846988677979, 
                -0.2681683301925659
            ], 
            "type" : "VEC3"
        }, 
        {
            "bufferView" : 2, 
            "componentType" : 5126, 
            "count" : 466, 
            "max" : [
                0.9710816740989685, 
                0.9897412657737732, 
                0.9984286427497864
            ], 
            "min" : [
                -0.9968174695968628, 
                -0.999975860118866, 
                -0.9933376312255859
            ], 
            "type" : "VEC3"
        }, 
        {
            "bufferView" : 3, 
            "componentType" : 5126, 
            "count" : 466, 
            "max" : [
                0.9652519226074219, 
                0.7485558986663818, 
                0.9962009191513062, 
                1.0
            ], 
            "min" : [
                -0.9955369234085083, 
                -0.9976123571395874, 
                -0.9835773706436157, 
                1.0
            ], 
            "type" : "VEC4"
        }, 
        {
            "bufferView" : 4, 
            "componentType" : 5126, 
            "count" : 466, 
            "max" : [
                0.9999999403953552, 
                1.0
            ], 
            "min" : [
                0.0, 
                5.960464477539063e-08
            ], 
            "type" : "VEC2"
        }
    ], 
    "asset" : {
        "generator" : "Khronos Blender glTF 2.0 exporter", 
        "version" : "2.0"
    }, 
    "bufferViews" : [
        {
            "buffer" : 0, 
            "byteLength" : 1032, 
            "byteOffset" : 0, 
            "target" : 34963
        }, 
        {
            "buffer" : 0, 
            "byteLength" : 5592, 
            "byteOffset" : 1032, 
            "target" : 34962
        }, 
        {
            "buffer" : 0, 
            "byteLength" : 5592, 
            "byteOffset" : 6624, 
            "target" : 34962
        }, 
        {
            "buffer" : 0, 
            "byteLength" : 7456, 
            "byteOffset" : 12216, 
            "target" : 34962
        }, 
        {
            "buffer" : 0, 
            "byteLength" : 3728, 
            "byteOffset" : 19672, 
            "target" : 34962
        }
    ], 
    "buffers" : [
        {
            "byteLength" : 23400, 
            "uri" : "swordman_fountain.bin"
        }
    ], 
    "meshes" : [
        {
            "name" : "Cube", 
            "primitives" : [
                {
                    "attributes" : {
                        "NORMAL" : 2, 
                        "POSITION" : 1, 
                        "TANGENT" : 3, 
                        "TEXCOORD_0" : 4
                    }, 
                    "indices" : 0
                }
            ]
        }
    ], 
    "nodes" : [
        {
            "mesh" : 0, 
            "name" : "SwordmanFountain", 
            "scale" : [
                1.2028157711029053, 
                1.2028157711029053, 
                1.2028157711029053
            ]
        }
    ], 
    "scene" : 0, 
    "scenes" : [
        {
            "name" : "Scene", 
            "nodes" : [
                0
            ]
        }
    ]
}
