{
    "accessors" : [
        {
            "bufferView" : 0, 
            "componentType" : 5123, 
            "count" : 1200, 
            "max" : [
                839
            ], 
            "min" : [
                0
            ], 
            "type" : "SCALAR"
        }, 
        {
            "bufferView" : 1, 
            "componentType" : 5126, 
            "count" : 840, 
            "max" : [
                0.5598440170288086, 
                1.332034707069397, 
                0.492052286863327
            ], 
            "min" : [
                -0.5638632774353027, 
                -0.020384132862091064, 
                -0.4833906590938568
            ], 
            "type" : "VEC3"
        }, 
        {
            "bufferView" : 2, 
            "componentType" : 5126, 
            "count" : 840, 
            "max" : [
                0.9998907446861267, 
                1.0, 
                0.9549059271812439
            ], 
            "min" : [
                -0.9998907446861267, 
                -1.0, 
                -0.9551005959510803
            ], 
            "type" : "VEC3"
        }, 
        {
            "bufferView" : 3, 
            "componentType" : 5126, 
            "count" : 840, 
            "max" : [
                1.0, 
                1.0
            ], 
            "min" : [
                0.0, 
                0.0
            ], 
            "type" : "VEC2"
        }
    ], 
    "asset" : {
        "generator" : "Khronos Blender glTF 2.0 exporter", 
        "version" : "2.0"
    }, 
    "bufferViews" : [
        {
            "buffer" : 0, 
            "byteLength" : 2400, 
            "byteOffset" : 0, 
            "target" : 34963
        }, 
        {
            "buffer" : 0, 
            "byteLength" : 10080, 
            "byteOffset" : 2400, 
            "target" : 34962
        }, 
        {
            "buffer" : 0, 
            "byteLength" : 10080, 
            "byteOffset" : 12480, 
            "target" : 34962
        }, 
        {
            "buffer" : 0, 
            "byteLength" : 6720, 
            "byteOffset" : 22560, 
            "target" : 34962
        }
    ], 
    "buffers" : [
        {
            "byteLength" : 29280, 
            "uri" : "daisy_phase2.bin"
        }
    ], 
    "meshes" : [
        {
            "name" : "Cylinder.008", 
            "primitives" : [
                {
                    "attributes" : {
                        "NORMAL" : 2, 
                        "POSITION" : 1, 
                        "TEXCOORD_0" : 3
                    }, 
                    "indices" : 0
                }
            ]
        }
    ], 
    "nodes" : [
        {
            "mesh" : 0, 
            "name" : "DaisyflowerPhase2"
        }
    ], 
    "scene" : 0, 
    "scenes" : [
        {
            "name" : "Scene", 
            "nodes" : [
                0
            ]
        }
    ]
}
