[gd_scene load_steps=7 format=2]

[ext_resource path="res://scripts/ui/HelpMenu.gd" type="Script" id=1]
[ext_resource path="res://scenes/ui/UIPanel.tscn" type="PackedScene" id=2]
[ext_resource path="res://assets/ui/theme.tres" type="Theme" id=3]
[ext_resource path="res://assets/ui/iconCheck_beige.png" type="Texture" id=4]

[sub_resource type="DynamicFontData" id=1]

font_path = "res://assets/fonts/Telex-Regular.ttf"

[sub_resource type="DynamicFont" id=2]

size = 18
use_mipmaps = false
use_filter = true
font_data = SubResource( 1 )
_sections_unfolded = [ "Font", "Settings" ]

[node name="HelpMenu" type="Control" index="0"]

anchor_left = 0.0
anchor_top = 0.0
anchor_right = 0.0
anchor_bottom = 0.0
margin_left = 40.0
margin_top = 90.0
margin_right = 320.0
margin_bottom = 570.0
rect_pivot_offset = Vector2( 0, 0 )
rect_clip_content = false
mouse_filter = 0
mouse_default_cursor_shape = 0
size_flags_horizontal = 1
size_flags_vertical = 1
script = ExtResource( 1 )
_sections_unfolded = [ "Rect" ]

[node name="UIPanel" parent="." index="0" instance=ExtResource( 2 )]

margin_right = 280.0
margin_bottom = 520.0
rect_min_size = Vector2( 280, 480 )

[node name="Welcome" type="Label" parent="." index="1"]

anchor_left = 0.0
anchor_top = 0.0
anchor_right = 0.0
anchor_bottom = 0.0
margin_top = 35.0
margin_right = 280.0
margin_bottom = 58.0
rect_pivot_offset = Vector2( 0, 0 )
rect_clip_content = false
mouse_filter = 2
mouse_default_cursor_shape = 0
size_flags_horizontal = 1
size_flags_vertical = 4
theme = ExtResource( 3 )
custom_fonts/font = SubResource( 2 )
text = "WELCOME_LABEL"
align = 1
autowrap = true
percent_visible = 1.0
lines_skipped = 0
max_lines_visible = -1
_sections_unfolded = [ "Theme", "custom_fonts" ]

[node name="Text" type="Label" parent="." index="2"]

anchor_left = 0.5
anchor_top = 0.5
anchor_right = 0.5
anchor_bottom = 0.5
margin_left = -120.0
margin_top = -160.0
margin_right = 120.0
margin_bottom = 210.0
rect_pivot_offset = Vector2( 0, 0 )
rect_clip_content = false
mouse_filter = 2
mouse_default_cursor_shape = 0
size_flags_horizontal = 1
size_flags_vertical = 4
text = "HELP_TEXT_LABEL"
align = 1
valign = 1
autowrap = true
percent_visible = 1.0
lines_skipped = 0
max_lines_visible = -1

[node name="Accept" type="TextureButton" parent="." index="3"]

anchor_left = 0.0
anchor_top = 0.0
anchor_right = 0.0
anchor_bottom = 0.0
margin_left = 120.0
margin_top = 460.0
margin_right = 160.0
margin_bottom = 500.0
rect_pivot_offset = Vector2( 0, 0 )
rect_clip_content = false
focus_mode = 2
mouse_filter = 0
mouse_default_cursor_shape = 0
size_flags_horizontal = 1
size_flags_vertical = 1
toggle_mode = false
enabled_focus_mode = 2
shortcut = null
group = null
texture_normal = ExtResource( 4 )
expand = true
_sections_unfolded = [ "Rect", "Textures" ]

[connection signal="pressed" from="Accept" to="." method="_on_Accept_pressed"]


