[gd_scene load_steps=4 format=2]

[ext_resource path="res://scripts/ui/SpotCreationMenu.gd" type="Script" id=1]
[ext_resource path="res://scenes/ui/UIPanel.tscn" type="PackedScene" id=2]
[ext_resource path="res://assets/ui/theme.tres" type="Theme" id=3]

[node name="SpotCreationMenu" type="Control" index="0"]

anchor_left = 0.0
anchor_top = 0.0
anchor_right = 0.0
anchor_bottom = 0.0
margin_left = 60.0
margin_top = 230.0
margin_right = 290.0
margin_bottom = 430.0
rect_pivot_offset = Vector2( 0, 0 )
rect_clip_content = false
mouse_filter = 1
mouse_default_cursor_shape = 0
size_flags_horizontal = 1
size_flags_vertical = 1
script = ExtResource( 1 )
_sections_unfolded = [ "Rect" ]

[node name="UIPanel" parent="." index="0" instance=ExtResource( 2 )]

margin_right = 230.0
margin_bottom = 200.0

[node name="Container" type="VBoxContainer" parent="." index="1"]

anchor_left = 0.5
anchor_top = 0.5
anchor_right = 0.5
anchor_bottom = 0.5
margin_left = -105.0
margin_top = -90.0
margin_right = 105.0
margin_bottom = 90.0
rect_pivot_offset = Vector2( 0, 0 )
rect_clip_content = false
mouse_filter = 1
mouse_default_cursor_shape = 0
size_flags_horizontal = 1
size_flags_vertical = 1
alignment = 1
_sections_unfolded = [ "Size Flags" ]

[node name="Seed" type="Button" parent="Container" index="0"]

anchor_left = 0.0
anchor_top = 0.0
anchor_right = 0.0
anchor_bottom = 0.0
margin_right = 210.0
margin_bottom = 88.0
rect_pivot_offset = Vector2( 0, 0 )
rect_clip_content = false
mouse_filter = 0
mouse_default_cursor_shape = 0
size_flags_horizontal = 7
size_flags_vertical = 3
theme = ExtResource( 3 )
toggle_mode = false
enabled_focus_mode = 0
shortcut = null
group = null
text = "SEED_SPOT_MENU_LABEL"
flat = false
align = 1
_sections_unfolded = [ "Size Flags" ]

[node name="Plant" type="Button" parent="Container" index="1"]

anchor_left = 0.0
anchor_top = 0.0
anchor_right = 0.0
anchor_bottom = 0.0
margin_top = 92.0
margin_right = 210.0
margin_bottom = 180.0
rect_pivot_offset = Vector2( 0, 0 )
rect_clip_content = false
mouse_filter = 0
mouse_default_cursor_shape = 0
size_flags_horizontal = 7
size_flags_vertical = 3
theme = ExtResource( 3 )
toggle_mode = false
enabled_focus_mode = 0
shortcut = null
group = null
text = "PLANT_SPOT_MENU_LABEL"
flat = false
align = 1
_sections_unfolded = [ "Rect", "Size Flags" ]

[connection signal="pressed" from="Container/Seed" to="." method="_on_Seed_pressed"]

[connection signal="pressed" from="Container/Plant" to="." method="_on_Plant_pressed"]


