[gd_scene load_steps=2 format=2]

[ext_resource path="res://assets/ui/panel_brown.png" type="Texture" id=1]

[node name="UIPanel" type="NinePatchRect"]

anchor_left = 0.0
anchor_top = 0.0
anchor_right = 0.0
anchor_bottom = 0.0
margin_right = 50.0
margin_bottom = 50.0
rect_pivot_offset = Vector2( 0, 0 )
rect_clip_content = false
mouse_filter = 2
mouse_default_cursor_shape = 0
size_flags_horizontal = 1
size_flags_vertical = 1
texture = ExtResource( 1 )
region_rect = Rect2( 0, 0, 100, 100 )
patch_margin_left = 5
patch_margin_top = 5
patch_margin_right = 5
patch_margin_bottom = 6
_sections_unfolded = [ "Rect" ]


