{
    "accessors" : [
        {
            "bufferView" : 0, 
            "componentType" : 5121, 
            "count" : 240, 
            "max" : [
                159
            ], 
            "min" : [
                0
            ], 
            "type" : "SCALAR"
        }, 
        {
            "bufferView" : 1, 
            "componentType" : 5126, 
            "count" : 160, 
            "max" : [
                1.4253431558609009, 
                3.0626704692840576, 
                1.4198120832443237
            ], 
            "min" : [
                -1.4089635610580444, 
                -0.025182008743286133, 
                -1.4144948720932007
            ], 
            "type" : "VEC3"
        }, 
        {
            "bufferView" : 2, 
            "componentType" : 5126, 
            "count" : 160, 
            "max" : [
                0.9741171598434448, 
                1.0, 
                0.9742398262023926
            ], 
            "min" : [
                -0.9741171598434448, 
                -1.0, 
                -0.9742398262023926
            ], 
            "type" : "VEC3"
        }, 
        {
            "bufferView" : 3, 
            "componentType" : 5126, 
            "count" : 160, 
            "max" : [
                1.0, 
                0.7724882960319519, 
                0.9859695434570312, 
                1.0
            ], 
            "min" : [
                -1.0, 
                -0.9742376804351807, 
                -1.0, 
                1.0
            ], 
            "type" : "VEC4"
        }, 
        {
            "bufferView" : 4, 
            "componentType" : 5126, 
            "count" : 160, 
            "max" : [
                1.0, 
                1.0
            ], 
            "min" : [
                0.0, 
                0.0
            ], 
            "type" : "VEC2"
        }
    ], 
    "asset" : {
        "generator" : "Khronos Blender glTF 2.0 exporter", 
        "version" : "2.0"
    }, 
    "bufferViews" : [
        {
            "buffer" : 0, 
            "byteLength" : 240, 
            "byteOffset" : 0, 
            "target" : 34963
        }, 
        {
            "buffer" : 0, 
            "byteLength" : 1920, 
            "byteOffset" : 240, 
            "target" : 34962
        }, 
        {
            "buffer" : 0, 
            "byteLength" : 1920, 
            "byteOffset" : 2160, 
            "target" : 34962
        }, 
        {
            "buffer" : 0, 
            "byteLength" : 2560, 
            "byteOffset" : 4080, 
            "target" : 34962
        }, 
        {
            "buffer" : 0, 
            "byteLength" : 1280, 
            "byteOffset" : 6640, 
            "target" : 34962
        }
    ], 
    "buffers" : [
        {
            "byteLength" : 7920, 
            "uri" : "radioactive_pot.bin"
        }
    ], 
    "meshes" : [
        {
            "name" : "Cube", 
            "primitives" : [
                {
                    "attributes" : {
                        "NORMAL" : 2, 
                        "POSITION" : 1, 
                        "TANGENT" : 3, 
                        "TEXCOORD_0" : 4
                    }, 
                    "indices" : 0
                }
            ]
        }
    ], 
    "nodes" : [
        {
            "name" : "Top", 
            "translation" : [
                0.0, 
                2.9798035621643066, 
                -0.0
            ]
        }, 
        {
            "mesh" : 0, 
            "name" : "RadioactivePot"
        }
    ], 
    "scene" : 0, 
    "scenes" : [
        {
            "name" : "Scene", 
            "nodes" : [
                1, 
                0
            ]
        }
    ]
}
