{
    "accessors" : [
        {
            "bufferView" : 0, 
            "componentType" : 5123, 
            "count" : 675, 
            "max" : [
                500
            ], 
            "min" : [
                0
            ], 
            "type" : "SCALAR"
        }, 
        {
            "bufferView" : 1, 
            "componentType" : 5126, 
            "count" : 501, 
            "max" : [
                0.5186290144920349, 
                0.9153673052787781, 
                0.442142128944397
            ], 
            "min" : [
                -0.5231649875640869, 
                -0.09929569065570831, 
                -0.5429080724716187
            ], 
            "type" : "VEC3"
        }, 
        {
            "bufferView" : 2, 
            "componentType" : 5126, 
            "count" : 501, 
            "max" : [
                0.9747563004493713, 
                1.0, 
                0.9970777630805969
            ], 
            "min" : [
                -0.9747896790504456, 
                -0.9583675265312195, 
                -0.9076869487762451
            ], 
            "type" : "VEC3"
        }, 
        {
            "bufferView" : 3, 
            "componentType" : 5126, 
            "count" : 501, 
            "max" : [
                1.0, 
                1.0
            ], 
            "min" : [
                0.0, 
                0.0
            ], 
            "type" : "VEC2"
        }
    ], 
    "asset" : {
        "generator" : "Khronos Blender glTF 2.0 exporter", 
        "version" : "2.0"
    }, 
    "bufferViews" : [
        {
            "buffer" : 0, 
            "byteLength" : 1350, 
            "byteOffset" : 0, 
            "target" : 34963
        }, 
        {
            "buffer" : 0, 
            "byteLength" : 6012, 
            "byteOffset" : 1352, 
            "target" : 34962
        }, 
        {
            "buffer" : 0, 
            "byteLength" : 6012, 
            "byteOffset" : 7364, 
            "target" : 34962
        }, 
        {
            "buffer" : 0, 
            "byteLength" : 4008, 
            "byteOffset" : 13376, 
            "target" : 34962
        }
    ], 
    "buffers" : [
        {
            "byteLength" : 17384, 
            "uri" : "cactus_pot.bin"
        }
    ], 
    "meshes" : [
        {
            "name" : "Icosphere", 
            "primitives" : [
                {
                    "attributes" : {
                        "NORMAL" : 2, 
                        "POSITION" : 1, 
                        "TEXCOORD_0" : 3
                    }, 
                    "indices" : 0
                }
            ]
        }
    ], 
    "nodes" : [
        {
            "mesh" : 0, 
            "name" : "CactusPot", 
            "scale" : [
                4.812345027923584, 
                4.812345027923584, 
                4.812345027923584
            ]
        }, 
        {
            "name" : "Top", 
            "translation" : [
                0.0, 
                4.290924549102783, 
                -0.0
            ]
        }
    ], 
    "scene" : 0, 
    "scenes" : [
        {
            "name" : "Scene", 
            "nodes" : [
                1, 
                0
            ]
        }
    ]
}
