{
    "accessors" : [
        {
            "bufferView" : 0, 
            "componentType" : 5123, 
            "count" : 5688, 
            "max" : [
                4677
            ], 
            "min" : [
                0
            ], 
            "type" : "SCALAR"
        }, 
        {
            "bufferView" : 1, 
            "componentType" : 5126, 
            "count" : 4678, 
            "max" : [
                0.9149503707885742, 
                1.5460948944091797, 
                0.41356587409973145
            ], 
            "min" : [
                -0.8674747943878174, 
                -0.12658146023750305, 
                -0.4666483998298645
            ], 
            "type" : "VEC3"
        }, 
        {
            "bufferView" : 2, 
            "componentType" : 5126, 
            "count" : 4678, 
            "max" : [
                0.997195303440094, 
                0.9987945556640625, 
                0.9985300302505493
            ], 
            "min" : [
                -0.9956109523773193, 
                -0.9934564828872681, 
                -0.9983957409858704
            ], 
            "type" : "VEC3"
        }, 
        {
            "bufferView" : 3, 
            "componentType" : 5126, 
            "count" : 4678, 
            "max" : [
                0.9976963996887207, 
                0.9998173713684082, 
                0.998849093914032, 
                1.0
            ], 
            "min" : [
                -0.9943084716796875, 
                -0.9994828104972839, 
                -0.9946978092193604, 
                1.0
            ], 
            "type" : "VEC4"
        }, 
        {
            "bufferView" : 4, 
            "componentType" : 5126, 
            "count" : 4678, 
            "max" : [
                1.0, 
                1.0
            ], 
            "min" : [
                0.0, 
                0.0
            ], 
            "type" : "VEC2"
        }
    ], 
    "asset" : {
        "generator" : "Khronos Blender glTF 2.0 exporter", 
        "version" : "2.0"
    }, 
    "bufferViews" : [
        {
            "buffer" : 0, 
            "byteLength" : 11376, 
            "byteOffset" : 0, 
            "target" : 34963
        }, 
        {
            "buffer" : 0, 
            "byteLength" : 56136, 
            "byteOffset" : 11376, 
            "target" : 34962
        }, 
        {
            "buffer" : 0, 
            "byteLength" : 56136, 
            "byteOffset" : 67512, 
            "target" : 34962
        }, 
        {
            "buffer" : 0, 
            "byteLength" : 74848, 
            "byteOffset" : 123648, 
            "target" : 34962
        }, 
        {
            "buffer" : 0, 
            "byteLength" : 37424, 
            "byteOffset" : 198496, 
            "target" : 34962
        }
    ], 
    "buffers" : [
        {
            "byteLength" : 235920, 
            "uri" : "cherrytree_phase3.bin"
        }
    ], 
    "meshes" : [
        {
            "name" : "Cylinder", 
            "primitives" : [
                {
                    "attributes" : {
                        "NORMAL" : 2, 
                        "POSITION" : 1, 
                        "TANGENT" : 3, 
                        "TEXCOORD_0" : 4
                    }, 
                    "indices" : 0
                }
            ]
        }
    ], 
    "nodes" : [
        {
            "mesh" : 0, 
            "name" : "CherrytreePhase3", 
            "scale" : [
                2.0700972080230713, 
                2.0700972080230713, 
                2.0700972080230713
            ]
        }
    ], 
    "scene" : 0, 
    "scenes" : [
        {
            "name" : "Scene", 
            "nodes" : [
                0
            ]
        }
    ]
}
